A,0,0,29,42
B,30,0,55,42
C,56,0,81,42
D,83,0,110,42
E,113,0,133,42
F,136,0,154,42
G,156,0,185,42
H,189,0,215,42
I,219,0,227,42
J,228,0,243,42
K,248,0,272,42
L,274,0,293,42
M,294,0,331,42
N,336,0,363,42
O,366,0,397,42
P,400,0,423,42
Q,424,0,458,42
R,459,0,483,42
S,484,0,505,42
T,506,0,531,42
U,533,0,560,42
V,561,0,590,42
W,590,0,634,42
X,634,0,659,42
Y,659,0,685,42
Z,685,0,708,42
a,708,0,730,42
b,733,0,757,42
c,758,0,777,42
d,778,0,802,42
e,804,0,827,42
f,827,0,844,42
g,844,0,866,42
h,867,0,890,42
i,893,0,902,42
j,906,0,914,42
k,917,0,939,42
l,940,0,949,42
m,952,0,988,42
n,991,0,1014,42
o,1016,0,1041,42
p,1043,0,1067,42
q,1068,0,1092,42
r,1095,0,1113,42
s,1120,0,1138,42
t,1138,0,1155,42
u,1157,0,1180,42
v,1181,0,1204,42
w,0,59,36,101
x,36,59,57,101
y,57,59,81,101
z,81,59,99,101
1,102,59,123,101
2,124,59,147,101
3,148,59,171,101
4,171,59,196,101
5,197,59,219,101
6,220,59,243,101
7,244,59,267,101
8,268,59,291,101
9,292,59,315,101
0,316,59,339,101
,,339,59,350,101
.,353,59,363,101
/,364,59,386,101
;,386,59,397,101
',400,59,408,101
[,412,59,424,101
],427,59,439,101
\,441,59,464101
<,464,59,485,101
>,488,59,510,101
?,512,59,532,101
:,535,59,544,101
",548,59,564,101
{,567,59,583,101
},585,59,601,101
|,608,59,616,101
`,625,59,637,101
~,638,59,662,101
!,666,59,675,101
@,679,59,719,101
#,720,59,745,101
$,745,59,768,101
%,769,59,803,101
^,803,59,828,101
&,828,59,861,101
*,864,59,883,101
(,887,59,899,101
),902,59,914,101
-,916,59,930,101
=,931,59,954,101
_,954,59,979,101
+,979,59,1002,101
 ,1002,59,1016,101